<?xml version="1.0" encoding="UTF-8"?>
<DataFileEntity>
   <description></description>
   <name>Register with DDT</name>
   <tag></tag>
   <connectionProperties/>
   <containsHeaders>true</containsHeaders>
   <csvSeperator></csvSeperator>
   <dataFileGUID>c8fbcb34-777f-4bee-8ea0-d3a835e72306</dataFileGUID>
   <dataSourceUrl>C:\Users\ichsa\OneDrive - student.gunadarma.ac.id\Dokumen\Bootcamp\DDT\Register.xlsx</dataSourceUrl>
   <driver>ExcelFile</driver>
   <isInternalPath>false</isInternalPath>
   <query></query>
   <secureUserAccount>false</secureUserAccount>
   <sheetName>Sheet1</sheetName>
   <usingGlobalDBSetting>false</usingGlobalDBSetting>
</DataFileEntity>
